R Workshop
…
surveys[1, 6]

## # A tibble: 1 x 1
##   species_id
##   <chr>     
## 1 NL

#defining only which element we want will return a data frame
surveys[1]

## # A tibble: 34,786 x 1
##    record_id
##        <int>
##  1         1
##  2        72
##  3       224
##  4       266
##  5       349
##  6       363
##  7       435
##  8       506
##  9       588
## 10       661
## # ... with 34,776 more rows

surveys[1:3, 7]

## # A tibble: 3 x 1
##   sex  
##   <chr>
## 1 M    
## 2 M    
## 3 <NA>

#give us all the rows and columns except column 7
surveys[, -7]

## # A tibble: 34,786 x 12
##    record_id month   day  year plot_id species_id hindfoot_length weight
##        <int> <int> <int> <int>   <int> <chr>                <int>  <int>
##  1         1     7    16  1977       2 NL                      32     NA
##  2        72     8    19  1977       2 NL                      31     NA
##  3       224     9    13  1977       2 NL                      NA     NA
##  4       266    10    16  1977       2 NL                      NA     NA
##  5       349    11    12  1977       2 NL                      NA     NA
##  6       363    11    12  1977       2 NL                      NA     NA
##  7       435    12    10  1977       2 NL                      NA     NA
##  8       506     1     8  1978       2 NL                      NA     NA
##  9       588     2    18  1978       2 NL                      NA    218
## 10       661     3    11  1978       2 NL                      NA     NA
## # ... with 34,776 more rows, and 4 more variables: genus <chr>,
## #   species <chr>, taxa <chr>, plot_type <chr>

surveys[, -c(1:3)]

## # A tibble: 34,786 x 10
##     year plot_id species_id sex   hindfoot_length weight genus   species 
##    <int>   <int> <chr>      <chr>           <int>  <int> <chr>   <chr>   
##  1  1977       2 NL         M                  32     NA Neotoma albigula
##  2  1977       2 NL         M                  31     NA Neotoma albigula
##  3  1977       2 NL         <NA>               NA     NA Neotoma albigula
##  4  1977       2 NL         <NA>               NA     NA Neotoma albigula
##  5  1977       2 NL         <NA>               NA     NA Neotoma albigula
##  6  1977       2 NL         <NA>               NA     NA Neotoma albigula
##  7  1977       2 NL         <NA>               NA     NA Neotoma albigula
##  8  1978       2 NL         <NA>               NA     NA Neotoma albigula
##  9  1978       2 NL         M                  NA    218 Neotoma albigula
## 10  1978       2 NL         <NA>               NA     NA Neotoma albigula
## # ... with 34,776 more rows, and 2 more variables: taxa <chr>,
## #   plot_type <chr>
…
filter(): subsets of rows based on conditions

mutate(): create new columns, based on information from other columns

group_by(): creates groups based on categorical data in a column

summarize(): creates summary stats on grouped data

arrange(): sort results

count(): gives a count of discrete values

select(surveys, plot_id, species_id, weight)

## # A tibble: 34,786 x 3
##    plot_id species_id weight
##      <int> <chr>       <int>
##  1       2 NL             NA
##  2       2 NL             NA
##  3       2 NL             NA
##  4       2 NL             NA
##  5       2 NL             NA
##  6       2 NL             NA
##  7       2 NL             NA
##  8       2 NL             NA
##  9       2 NL            218
## 10       2 NL             NA
## # ... with 34,776 more rows

#negative subsetting
select(surveys, -record_id)

## # A tibble: 34,786 x 12
##    month   day  year plot_id species_id sex   hindfoot_length weight genus
##    <int> <int> <int>   <int> <chr>      <chr>           <int>  <int> <chr>
##  1     7    16  1977       2 NL         M                  32     NA Neot
##  2     8    19  1977       2 NL         M                  31     NA Neot
##  3     9    13  1977       2 NL         <NA>               NA     NA Neot
##  4    10    16  1977       2 NL         <NA>               NA     NA Neot
##  5    11    12  1977       2 NL         <NA>               NA     NA Neot
##  6    11    12  1977       2 NL         <NA>               NA     NA Neot
##  7    12    10  1977       2 NL         <NA>               NA     NA Neot
##  8     1     8  1978       2 NL         <NA>               NA     NA Neot
##  9     2    18  1978       2 NL         M                  NA    218 Neot
## 10     3    11  1978       2 NL         <NA>               NA     NA Neot
## # ... with 34,776 more rows, and 3 more variables: species <chr>,
## #   taxa <chr>, plot_type <chr>
…
surveys_sml <- surveys %>%
  filter(weight<5) %>%
  select(species_id, sex, weight)

Challenge #1

Using pipe, subset the surveys dataframe to include animals collected 1995 and retain only the columns year, sex and weight.

surveys %>%
  filter(year==1995) %>%
  select(year, sex, weight)

## # A tibble: 1,180 x 3
##     year sex   weight
##    <int> <chr>  <int>
##  1  1995 M         NA
##  2  1995 F        165
##  3  1995 F        171
##  4  1995 F         NA
##  5  1995 M         41
##  6  1995 F         45
##  7  1995 M         46
##  8  1995 F         49
##  9  1995 M         46
## 10  1995 M         48
## # ... with 1,170 more rows

surveys %>%
  mutate(weight_kg=weight/1000,
         weight_kg2=weight_kg*2)

## # A tibble: 34,786 x 15
##    record_id month   day  year plot_id species_id sex   hindfoot_length
##        <int> <int> <int> <int>   <int> <chr>      <chr>           <int>
##  1         1     7    16  1977       2 NL         M                  32
##  2        72     8    19  1977       2 NL         M                  31
##  3       224     9    13  1977       2 NL         <NA>               NA
##  4       266    10    16  1977       2 NL         <NA>               NA
##  5       349    11    12  1977       2 NL         <NA>               NA
##  6       363    11    12  1977       2 NL         <NA>               NA
##  7       435    12    10  1977       2 NL         <NA>               NA
##  8       506     1     8  1978       2 NL         <NA>               NA
##  9       588     2    18  1978       2 NL         M                  NA
## 10       661     3    11  1978       2 NL         <NA>               NA
## # ... with 34,776 more rows, and 7 more variables: weight <int>,
## #   genus <chr>, species <chr>, taxa <chr>, plot_type <chr>,
## #   weight_kg <dbl>, weight_kg2 <dbl>
…
## # A tibble: 3 x 2
##   sex   mean_weight
##   <chr>       <dbl>
## 1 F            42.2
## 2 M            43.0
## 3 <NA>         64.7

surveys %>%
  group_by(sex, species_id) %>%
  summarize(mean_weight=mean(weight, na.rm=TRUE),
            min_weight=min(weight, na.rm=TRUE)) %>%
  arrange(desc(min_weight))

## # A tibble: 64 x 4
## # Groups:   sex [3]
##    sex   species_id mean_weight min_weight
##    <chr> <chr>            <dbl>      <dbl>
##  1 M     SS               130          130
##  2 <NA>  SH               130          130
##  3 <NA>  NL               168.          83
##  4 <NA>  DS               120           78
##  5 F     SS                57           57
##  6 F     SF                69           46
##  7 F     DS               118.          45
##  8 <NA>  DO                50.7         44
##  9 <NA>  SF                40.5         36
## 10 M     SO                55.7         35
## # ... with 54 more rows
…
Use group_by and summarize to find the mean, min and max of hindfoot length (using species_id) for each species. Also, add the number of observations (hint: see ?n)

surveys %>%
  group_by(species_id) %>%
  summarise(mean_length=mean(hindfoot_length, na.rm = TRUE),
            min_length=min(hindfoot_length, na.rm = TRUE),
            max_length=max(hindfoot_length, na.rm = TRUE), n=n())

## # A tibble: 25 x 5
##    species_id mean_length min_length max_length     n
##    <chr>            <dbl>      <dbl>      <dbl> <int>
##  1 BA                13            6         16    45
##  2 DM                36.0         16         50 10262
##  3 DO                35.6         26         64  2904
##  4 DS                50.0         39         58  2344
##  5 NL                32.3         21         42  1152
##  6 OL                20.5         12         39   970
##  7 OT                20.3         13         50  2160
##  8 OX                20.4         19         21     6
##  9 PB                26.1          2         47  2810
## 10 PE                20.2         11         30  1260
## # ... with 15 more rows

What was the heaviest animal measured in each year? Return the columns year, genus, species_id and weight.

surveys %>%
  group_by(year) %>%
  summarise(genus=first(genus),
            species_id=first(species_id),
    max_weight=max(weight, na.rm=TRUE)) %>% 
  select(year, genus, species_id, max_weight)

## # A tibble: 26 x 4
##     year genus     species_id max_weight
##    <int> <chr>     <chr>           <dbl>
##  1  1977 Dipodomys DM                149
##  2  1978 Neotoma   NL                232
##  3  1979 Neotoma   NL                274
##  4  1980 Neotoma   NL                243
##  5  1981 Neotoma   NL                264
##  6  1982 Neotoma   NL                252
##  7  1983 Neotoma   NL                256
##  8  1984 Neotoma   NL                259
##  9  1985 Neotoma   NL                225
## 10  1986 Neotoma   NL                240
## # ... with 16 more rows
…
## # A tibble: 6 x 2
##   species     n
##   <chr>   <int>
## 1 CK         12
## 2 CO         98
## 3 CU       1689
## 4 HE        282
## 5 PI        860
## 6 SO       3497

fish %>%
  group_by(site_id) %>%
  count(species)

## # A tibble: 95 x 3
## # Groups:   site_id [20]
##    site_id species     n
##    <chr>   <chr>   <int>
##  1 D01     CO          1
##  2 D01     CU         10
##  3 D01     HE          2
##  4 D01     SO         30
##  5 D02     CU         30
##  6 D02     HE          1
##  7 D02     SO         68
##  8 D03     CO          1
##  9 D03     CU         21
## 10 D03     HE          4
## # ... with 85 more rows
…
durations

Joining Data

Data we have:

chla

tidy_gsi

fish_d09

left_join(fish_d09, tidy_gsi, by="hakai_id")

## # A tibble: 832 x 28
##    hakai_id jsp_survey_id seine_id date       species site_id fork_length
##    <chr>    <chr>         <chr>    <date>     <fct>   <chr>         <int>
##  1 U4802    DE112         DE112N1  2015-05-20 SO      D09             106
##  2 U4776    DE112         DE112N1  2015-05-20 SO      D09             106
##  3 U4728    DE112         DE112N1  2015-05-20 SO      D09              97
##  4 U4801    DE112         DE112N1  2015-05-20 SO      D09             102
##  5 U4777    DE112         DE112N1  2015-05-20 SO      D09             102
##  6 U4779    DE112         DE112N1  2015-05-20 SO      D09              97
##  7 U4778    DE112         DE112N1  2015-05-20 SO      D09              96
##  8 U4800    DE112         DE112N1  2015-05-20 SO      D09              95
##  9 U4780    DE112         DE112N1  2015-05-20 SO      D09             128
## 10 U350     DE112         DE112N1  2015-05-20 SO      D09             101
## # ... with 822 more rows, and 21 more variables: weight <dbl>, k <dbl>,
## #   year <dbl>, month <dbl>, week <dbl>, yday <dbl>, stock_1 <chr>,
## #   region_1 <int>, prob_1 <dbl>, stock_2 <chr>, region_2 <int>,
## #   prob_2 <dbl>, stock_3 <chr>, region_3 <int>, prob_3 <dbl>,
## #   stock_4 <chr>, region_4 <int>, prob_4 <dbl>, stock_5 <chr>,
## #   region_5 <int>, prob_5 <dbl>

right_join(fish_d09, tidy_gsi, by="hakai_id")

## # A tibble: 1,187 x 28
##    hakai_id jsp_survey_id seine_id date       species site_id fork_length
##    <chr>    <chr>         <chr>    <date>     <fct>   <chr>         <int>
##  1 U10      <NA>          <NA>     NA         <NA>    <NA>             NA
##  2 U16      <NA>          <NA>     NA         <NA>    <NA>             NA
##  3 U17      <NA>          <NA>     NA         <NA>    <NA>             NA
##  4 U21      <NA>          <NA>     NA         <NA>    <NA>             NA
##  5 U25      <NA>          <NA>     NA         <NA>    <NA>             NA
##  6 U31      <NA>          <NA>     NA         <NA>    <NA>             NA
##  7 U35      <NA>          <NA>     NA         <NA>    <NA>             NA
##  8 U42      <NA>          <NA>     NA         <NA>    <NA>             NA
##  9 U43      <NA>          <NA>     NA         <NA>    <NA>             NA
## 10 U7       <NA>          <NA>     NA         <NA>    <NA>             NA
## # ... with 1,177 more rows, and 21 more variables: weight <dbl>, k <dbl>,
## #   year <dbl>, month <dbl>, week <dbl>, yday <dbl>, stock_1 <chr>,
## #   region_1 <int>, prob_1 <dbl>, stock_2 <chr>, region_2 <int>,
## #   prob_2 <dbl>, stock_3 <chr>, region_3 <int>, prob_3 <dbl>,
## #   stock_4 <chr>, region_4 <int>, prob_4 <dbl>, stock_5 <chr>,
## #   region_5 <int>, prob_5 <dbl>

anti_join(fish_d09, tidy_gsi, by="hakai_id")

## # A tibble: 685 x 13
##    hakai_id jsp_survey_id seine_id date       species site_id fork_length
##    <chr>    <chr>         <chr>    <date>     <fct>   <chr>         <int>
##  1 U4802    DE112         DE112N1  2015-05-20 SO      D09             106
##  2 U4776    DE112         DE112N1  2015-05-20 SO      D09             106
##  3 U4728    DE112         DE112N1  2015-05-20 SO      D09              97
##  4 U4801    DE112         DE112N1  2015-05-20 SO      D09             102
##  5 U4777    DE112         DE112N1  2015-05-20 SO      D09             102
##  6 U4779    DE112         DE112N1  2015-05-20 SO      D09              97
##  7 U4778    DE112         DE112N1  2015-05-20 SO      D09              96
##  8 U4800    DE112         DE112N1  2015-05-20 SO      D09              95
##  9 U4780    DE112         DE112N1  2015-05-20 SO      D09             128
## 10 U348     DE112         DE112N1  2015-05-20 SO      D09              94
## # ... with 675 more rows, and 6 more variables: weight <dbl>, k <dbl>,
## #   year <dbl>, month <dbl>, week <dbl>, yday <dbl>
…
